
Start-Date: 2024-02-15  07:13:57
Commandline: apt autoremove
Remove: linux-image-6.6.13-gnu:amd64 (6.6.13-gnu-1.0)
End-Date: 2024-02-15  07:13:58

Start-Date: 2024-02-15  07:14:34
Commandline: apt install cryptsetup
Install: cryptsetup-bin:amd64 (2:2.6.1-4~deb12u2, automatic), cryptsetup:amd64 (2:2.6.1-4~deb12u2)
End-Date: 2024-02-15  07:14:35
