
Start-Date: 2024-02-15  07:08:46
Commandline: apt upgrade
Install: linux-image-6.6.16-gnu:amd64 (6.6.16-gnu-1.0, automatic), linux-headers-6.6.16-gnu:amd64 (6.6.16-gnu-1.0, automatic)
Upgrade: iso-snapshot-cli:amd64 (24.01.01, 24.02.04), pluma-common:amd64 (1.26.0-1, 1.26.0-1+deb12u1), mate-screensaver-common:amd64 (1.26.1-1, 1.26.1-1+deb12u1), tzdata:amd64 (2023c-5+deb12u1, 2024a-0+deb12u1), libatrilview3:amd64 (1.26.0-2+b1, 1.26.0-2+deb12u2), mx-locale:amd64 (24.1.14, 24.1.15), engrampa:amd64 (1.26.0-1, 1.26.0-1+deb12u1), tar:amd64 (1.34+dfsg-1.2, 1.34+dfsg-1.2+deb12u1), atril:amd64 (1.26.0-2+b1, 1.26.0-2+deb12u2), linux-libre-lts:amd64 (6.6.14, 6.6.16), pluma:amd64 (1.26.0-1, 1.26.0-1+deb12u1), libjavascriptcoregtk-4.1-0:amd64 (2.42.4-1~deb12u1, 2.42.5-1~deb12u1), libmatedict6:amd64 (1.26.0-1, 1.26.0-1+deb12u1), libmateweather1:amd64 (1.26.0-1.1+deb12u1, 1.26.0-1.1+deb12u2), gir1.2-pluma-1.0:amd64 (1.26.0-1, 1.26.0-1+deb12u1), libmateweather-common:amd64 (1.26.0-1.1+deb12u1, 1.26.0-1.1+deb12u2), mate-screensaver:amd64 (1.26.1-1, 1.26.1-1+deb12u1), usr-is-merged:amd64 (35, 37~deb12u1), usbutils:amd64 (1:014-1, 1:014-1+deb12u1), libc6:amd64 (2.36-9+deb12u3, 2.36-9+deb12u4), libc6:i386 (2.36-9+deb12u3, 2.36-9+deb12u4), locales:amd64 (2.36-9+deb12u3, 2.36-9+deb12u4), atril-common:amd64 (1.26.0-2, 1.26.0-2+deb12u2), base-files:amd64 (12.4+deb12u4, 12.4+deb12u5), linux-libre-lts-headers:amd64 (6.6.14, 6.6.16), mx-packageinstaller-pkglist:amd64 (24.01.6mx23, 24.02.4mx23), libcryptsetup12:amd64 (2:2.6.1-4~deb12u1, 2:2.6.1-4~deb12u2), libwebkit2gtk-4.1-0:amd64 (2.42.4-1~deb12u1, 2.42.5-1~deb12u1), mate-utils:amd64 (1.26.0-1, 1.26.0-1+deb12u1), mate-utils-common:amd64 (1.26.0-1, 1.26.0-1+deb12u1), libatrildocument3:amd64 (1.26.0-2+b1, 1.26.0-2+deb12u2), libc-dev-bin:amd64 (2.36-9+deb12u3, 2.36-9+deb12u4), caja:amd64 (1.26.1-1, 1.26.1-1+deb12u1), engrampa-common:amd64 (1.26.0-1, 1.26.0-1+deb12u1), mx-snapshot:amd64 (24.01.01, 24.02.04), libc-l10n:amd64 (2.36-9+deb12u3, 2.36-9+deb12u4), mx-installer:amd64 (24.01.01mx23, 24.01.02mx23), mate-settings-daemon:amd64 (1.26.0-1, 1.26.0-1+deb12u1), libc-bin:amd64 (2.36-9+deb12u3, 2.36-9+deb12u4), libisl23:amd64 (0.25-1, 0.25-1.1), libc6-dev:amd64 (2.36-9+deb12u3, 2.36-9+deb12u4), mx-system:amd64 (24.01.02mx23, 24.02.02mx23), libgnutls30:amd64 (3.7.9-2+deb12u1, 3.7.9-2+deb12u2), caja-common:amd64 (1.26.1-1, 1.26.1-1+deb12u1), libcaja-extension1:amd64 (1.26.1-1, 1.26.1-1+deb12u1), mate-settings-daemon-common:amd64 (1.26.0-1, 1.26.0-1+deb12u1), libde265-0:amd64 (1.0.11-1+deb12u1, 1.0.11-1+deb12u2), linux-libc-dev:amd64 (6.1.69-1, 6.1.76-1)
End-Date: 2024-02-15  07:12:37
