<?xml version="1.0" encoding="UTF-8" standalone="no"?>
<!-- Created with Inkscape (http://www.inkscape.org/) -->
<svg xmlns:dc="http://purl.org/dc/elements/1.1/" xmlns:cc="http://creativecommons.org/ns#" xmlns:rdf="http://www.w3.org/1999/02/22-rdf-syntax-ns#" xmlns:svg="http://www.w3.org/2000/svg" xmlns="http://www.w3.org/2000/svg" xmlns:xlink="http://www.w3.org/1999/xlink" xmlns:sodipodi="http://sodipodi.sourceforge.net/DTD/sodipodi-0.dtd" xmlns:inkscape="http://www.inkscape.org/namespaces/inkscape" width="260" height="280" id="svg2" sodipodi:version="0.32" inkscape:version="0.46+devel" sodipodi:docname="freedo-eyes.svg" inkscape:output_extension="org.inkscape.output.svg.inkscape" version="1.0" inkscape:export-filename="freedo.png" inkscape:export-xdpi="90" inkscape:export-ydpi="90">
  <defs id="defs4">
    <linearGradient id="linearGradient3228">
      <stop style="stop-color:#7f7f7f;stop-opacity:1;" offset="0" id="stop3230"/>
      <stop style="stop-color:#ffffff;stop-opacity:1;" offset="1" id="stop3232"/>
    </linearGradient>
    <inkscape:perspective sodipodi:type="inkscape:persp3d" inkscape:vp_x="0 : 526.18109 : 1" inkscape:vp_y="0 : 1000 : 0" inkscape:vp_z="744.09448 : 526.18109 : 1" inkscape:persp3d-origin="372.04724 : 350.78739 : 1" id="perspective10"/>
    <inkscape:perspective id="perspective2390" inkscape:persp3d-origin="372.04724 : 350.78739 : 1" inkscape:vp_z="744.09448 : 526.18109 : 1" inkscape:vp_y="0 : 1000 : 0" inkscape:vp_x="0 : 526.18109 : 1" sodipodi:type="inkscape:persp3d"/>
    <inkscape:perspective id="perspective4298" inkscape:persp3d-origin="0.5 : 0.33333333 : 1" inkscape:vp_z="1 : 0.5 : 1" inkscape:vp_y="0 : 1000 : 0" inkscape:vp_x="0 : 0.5 : 1" sodipodi:type="inkscape:persp3d"/>
    <inkscape:perspective id="perspective4830" inkscape:persp3d-origin="0.5 : 0.33333333 : 1" inkscape:vp_z="1 : 0.5 : 1" inkscape:vp_y="0 : 1000 : 0" inkscape:vp_x="0 : 0.5 : 1" sodipodi:type="inkscape:persp3d"/>
    <inkscape:perspective id="perspective4852" inkscape:persp3d-origin="0.5 : 0.33333333 : 1" inkscape:vp_z="1 : 0.5 : 1" inkscape:vp_y="0 : 1000 : 0" inkscape:vp_x="0 : 0.5 : 1" sodipodi:type="inkscape:persp3d"/>
    <inkscape:perspective id="perspective4936" inkscape:persp3d-origin="0.5 : 0.33333333 : 1" inkscape:vp_z="1 : 0.5 : 1" inkscape:vp_y="0 : 1000 : 0" inkscape:vp_x="0 : 0.5 : 1" sodipodi:type="inkscape:persp3d"/>
  </defs>
  <sodipodi:namedview id="base" pagecolor="#ffffff" bordercolor="#666666" borderopacity="1.0" inkscape:pageopacity="0.0" inkscape:pageshadow="2" inkscape:zoom="1.2928571" inkscape:cx="130" inkscape:cy="140" inkscape:document-units="px" inkscape:current-layer="layer1" showgrid="false" showguides="true" inkscape:guide-bbox="true" inkscape:window-width="706" inkscape:window-height="610" inkscape:window-x="6" inkscape:window-y="97" inkscape:snap-grids="false" inkscape:snap-to-guides="false" inkscape:snap-nodes="false" inkscape:snap-global="false"/>
  <metadata id="metadata7">
    <rdf:RDF>
      <cc:Work rdf:about="">
        <dc:format>image/svg+xml</dc:format>
        <dc:type rdf:resource="http://purl.org/dc/dcmitype/StillImage"/>
        <dc:title/>
      </cc:Work>
    </rdf:RDF>
  </metadata>
  <g inkscape:label="Capa 1" inkscape:groupmode="layer" id="layer1" transform="translate(-15.039751,-169.27877)">
    <path style="fill:#a7d4ff;fill-opacity:1;fill-rule:evenodd;stroke:#000000;stroke-width:4.20881128;stroke-linecap:butt;stroke-linejoin:round;stroke-miterlimit:4;stroke-opacity:1;stroke-dasharray:none" d="m 134.91152,269.82335 0.0428,-16.50374 c -2.98882,4.60758 -19.00125,14.70332 -22.3875,18.12407 -6.72174,6.5127 -23.553167,9.0517 -32.087897,13.93184 2.9897,8.21456 12.34904,1.21326 10.6124,13.63265 4.20911,-0.50679 12.392647,-0.32297 18.179637,-8.33495 l 25.64057,-20.84987 z" id="path3186" sodipodi:nodetypes="ccccccc"/>
    <path style="fill:#f8b44d;fill-opacity:1;fill-rule:evenodd;stroke:#000000;stroke-width:4.20881127999999993;stroke-linecap:butt;stroke-linejoin:round;stroke-miterlimit:4;stroke-opacity:1;stroke-dasharray:none" d="m 101.48318,325.85358 c -2.246299,5.14927 -7.415067,5.12407 -12.634117,5.00986 l -18.44078,-62.71448 c 4.83417,-13.48586 1.38199,-32.79975 -11.83279,-36.26331 4.93126,-10.48906 12.14938,-6.8382 18.52838,-8.37563 11.90972,2.45175 25.587687,37.17738 9.46677,47.13884 l 14.511457,48.74706 0.40108,6.45766 z" id="path3188" sodipodi:nodetypes="cccccccc"/>
    <path style="fill:#fab74f;fill-opacity:1;fill-rule:evenodd;stroke:#000000;stroke-width:4.20881128;stroke-linecap:butt;stroke-linejoin:round;stroke-miterlimit:4;stroke-opacity:1;stroke-dasharray:none" d="m 169.81256,376.03325 c -0.26914,14.69632 13.29319,31.13327 22.57417,33.14577 2.42309,-3.99129 3.77574,-7.68298 3.78344,-11.59883 5.61688,3.05058 8.5406,3.38999 13.89725,3.74774 1.38787,-4.57318 1.37734,-7.55328 -2.12704,-12.04256 4.99323,0.61542 9.85522,-0.74204 13.68543,-2.57301 -2.69633,-7.35272 -25.61989,-16.00572 -34.69955,-17.58741 -12.51752,7.96807 -29.52078,-9.6978 -17.1137,6.9083 z" id="path2402" sodipodi:nodetypes="cccccccc"/>
    <path style="fill:#f8b44d;fill-opacity:1;fill-rule:evenodd;stroke:#000000;stroke-width:4.20881128;stroke-linecap:butt;stroke-linejoin:round;stroke-miterlimit:4;stroke-opacity:1;stroke-dasharray:none" d="m 119.67563,369.7459 c -12.96929,-1.03167 -27.441867,6.64659 -34.618477,12.81974 2.71981,1.29835 8.12671,4.64247 13.496688,4.03675 -2.803858,4.11339 -2.872088,7.74792 -2.348208,11.14074 3.458228,0.78116 9.523297,0.11458 14.092157,-1.1059 -2.07442,4.19313 -2.61969,7.76329 -1.36236,11.60308 6.1988,0.11953 26.06576,-11.99845 33.91456,-29.65825 -16.95066,-4.65017 -14.13641,3.23077 -23.17436,-8.83616 z" id="path2400" sodipodi:nodetypes="cccccccc"/>
    <path style="fill:#a7d4ff;fill-opacity:1;fill-rule:evenodd;stroke:#000000;stroke-width:4.20881128;stroke-linecap:butt;stroke-linejoin:round;stroke-miterlimit:4;stroke-opacity:1;stroke-dasharray:none" d="m 119.37495,251.30681 c 0,0 2.46845,-21.14166 11.41929,-30.22676 22.34318,-22.67828 51.21822,-10.05484 63.31889,17.85702 11.22882,25.90081 32.74306,101.78996 15.1031,126.86568 -18.71423,28.70215 -60.52853,29.02779 -88.04811,20.12453 -8.35909,-1.98546 -19.15653,-15.26199 -21.176519,-23.11953 -4.800448,-18.63326 -8.989858,-44.42877 9.359259,-83.12356 l 5.27657,-13.20782 4.74752,-15.16956 z" id="path2396" sodipodi:nodetypes="csscccccc"/>
    <path style="fill:#ffffff;fill-opacity:1;fill-rule:evenodd;stroke:#000000;stroke-width:4.20881128;stroke-linecap:butt;stroke-linejoin:round;stroke-miterlimit:4;stroke-opacity:1;stroke-dasharray:none" d="m 115.26726,381.98071 c -15.08148,-38.92384 -11.77226,-95.9868 33.91105,-94.67658 45.26226,1.29813 49.60164,74.98189 22.74105,101.51542 -18.44422,5.48716 -48.52026,1.03403 -56.6521,-6.83884 z" id="path2398" sodipodi:nodetypes="czcc"/>
    <path style="fill:#ffffff;fill-opacity:1;fill-rule:evenodd;stroke:#000000;stroke-width:4.20881128;stroke-linecap:butt;stroke-linejoin:round;stroke-miterlimit:4;stroke-opacity:1;stroke-dasharray:none" d="m 191.89387,254.89789 c 1.25857,8.01661 1.81849,15.63139 6.23636,25.4652 -3.00843,8.14942 -1.15088,11.96979 1.02535,15.50665 4.54904,6.68186 5.9287,13.46623 5.89459,20.29631 -0.22546,7.02997 -2.68218,11.83935 3.32887,20.14649 4.32907,5.09143 9.36463,9.66646 12.53361,16.8223 4.33092,-5.90089 5.39486,-12.65592 5.65114,-19.6221 -5.41684,-5.32319 -10.184,-11.47977 -9.20763,-20.79143 -1.08835,9.25489 3.7183,15.79068 7.08161,18.55151 6.4254,3.64842 5.93421,3.33888 13.82786,4.99412 -1.89831,-9.00274 1.10422,-10.36213 0.34922,-16.0111 -0.9641,-7.21372 -3.93561,-15.89761 -6.70894,-23.11727 l -4.73683,-7.96468 c -6.38023,-11.46918 -11.09809,-68.6925 -29.51172,-55.8224 -5.16161,6.9929 -5.64308,14.25911 -5.76349,21.5464 z" id="path2406" sodipodi:nodetypes="ccccccccccscccc"/>
    <path style="fill:#a7d4ff;fill-opacity:1;fill-rule:evenodd;stroke:#000000;stroke-width:4.20881128;stroke-linecap:butt;stroke-linejoin:round;stroke-miterlimit:4;stroke-opacity:1;stroke-dasharray:none" d="m 208.34628,259.72031 c 7.3156,15.23037 17.50782,30.62869 28.20414,46.05648 0,0 6.38822,-6.47483 8.16611,-9.88614 1.35772,-2.60513 2.61645,-9.43633 2.61645,-9.43633 -4.03053,-9.38259 -17.15531,-28.31601 -27.44565,-37.00155 -13.20868,-9.24585 -14.12118,-1.8523 -11.54105,10.26754 z" id="path2404" sodipodi:nodetypes="ccsscc"/>
    <path style="fill:#f8b44d;fill-opacity:1;fill-rule:evenodd;stroke:#000000;stroke-width:4.03034544;stroke-linecap:butt;stroke-linejoin:round;stroke-miterlimit:4;stroke-opacity:1;stroke-dasharray:none" d="m 140.22304,245.12412 c -5.80089,3.14961 -13.20961,12.73486 -8.7445,29.91518 11.33097,7.78973 47.31004,-11.81552 32.24522,-28.19508 -7.02787,-4.95951 -16.27701,-4.41372 -23.50072,-1.7201 z" id="path2408" sodipodi:nodetypes="cccc"/>
    <path style="fill:#a7d4ff;fill-opacity:1;fill-rule:evenodd;stroke:#000000;stroke-width:4.20881128;stroke-linecap:butt;stroke-linejoin:round;stroke-miterlimit:4;stroke-opacity:1;stroke-dasharray:none" d="m 65.399803,301.53617 c 3.84706,8.79887 16.50896,4.97576 19.30898,4.21762 6.16037,-1.99372 3.66187,-10.70247 -1.7376,-11.79801 -3.9095,-0.70621 -3.94025,0.21868 -7.83731,1.62054 l 2.94397,-1.57124 c -1.18022,-3.9333 -1.76813,-5.17034 -2.70392,-8.57511 -6.07232,-0.41348 -13.31555,9.8307 -9.97412,16.1062 z" id="path3190" sodipodi:nodetypes="ccccccc"/>
    <path style="fill:none;stroke:#000000;stroke-width:4.20881128;stroke-linecap:round;stroke-linejoin:round;stroke-miterlimit:4;stroke-opacity:1;stroke-dasharray:none" d="m 64.011473,225.29584 c 17.13061,-2.73374 23.43021,26.97406 20.34414,36.47776" id="path3198" sodipodi:nodetypes="cc"/>
    <g id="g2406" transform="matrix(0.33321477,0.00876396,-0.00876396,0.33321477,33.340973,124.64499)">
      <path sodipodi:nodetypes="ccccc" id="path3200" d="M 102.78942,314.27247 51.346983,324.3802 c -32.625899,9.49053 -1.248724,130.2257 33.433189,124.55322 l 58.265678,-24.95047 c 14.40861,-64.2583 -19.30871,-107.41604 -40.25643,-109.71048 z" style="fill:#ececec;fill-opacity:1;fill-rule:evenodd;stroke:#000000;stroke-width:12.62656021;stroke-linecap:butt;stroke-linejoin:round;stroke-miterlimit:4;stroke-opacity:1;stroke-dasharray:none"/>
      <path sodipodi:nodetypes="ccc" id="path3202" d="m 53.694461,327.3368 c 28.461504,-6.72904 56.552819,102.78717 28.981045,122.74924 l 11.444514,-4.6686" style="fill:none;stroke:#000000;stroke-width:3.08632779px;stroke-linecap:butt;stroke-linejoin:miter;stroke-opacity:1"/>
      <path sodipodi:nodetypes="cc" id="path3206" d="M 71.623085,335.87881 123.78687,325.53132" style="fill:none;stroke:#000000;stroke-width:3.15664005px;stroke-linecap:butt;stroke-linejoin:miter;stroke-opacity:1"/>
      <path sodipodi:nodetypes="cc" id="path3208" d="M 79.799668,349.28292 130.4626,338.88732" style="fill:none;stroke:#000000;stroke-width:3.15664005px;stroke-linecap:butt;stroke-linejoin:miter;stroke-opacity:1"/>
      <path sodipodi:nodetypes="cc" id="path3210" d="M 85.264414,364.51494 135.2178,354.08808" style="fill:none;stroke:#000000;stroke-width:3.15664005px;stroke-linecap:butt;stroke-linejoin:miter;stroke-opacity:1"/>
      <path sodipodi:nodetypes="cc" id="path3212" d="M 91.139169,380.4253 140.32531,369.61482" style="fill:none;stroke:#000000;stroke-width:3.15664005px;stroke-linecap:butt;stroke-linejoin:miter;stroke-opacity:1"/>
      <path sodipodi:nodetypes="cc" id="path3214" d="M 92.824619,396.52371 144.28609,383.61998" style="fill:none;stroke:#000000;stroke-width:3.15664005px;stroke-linecap:butt;stroke-linejoin:miter;stroke-opacity:1"/>
      <path sodipodi:nodetypes="cc" id="path3216" d="M 94.128331,411.69752 145.12027,397.19873" style="fill:none;stroke:#000000;stroke-width:3.15664005px;stroke-linecap:butt;stroke-linejoin:miter;stroke-opacity:1"/>
      <path sodipodi:nodetypes="cc" id="path3220" d="M 92.948272,426.55921 144.3423,409.27041" style="fill:none;stroke:#000000;stroke-width:3.15664005px;stroke-linecap:butt;stroke-linejoin:miter;stroke-opacity:1"/>
    </g>
    <path style="fill:none;stroke:#000000;stroke-width:3.99995995;stroke-linecap:round;stroke-linejoin:round;stroke-miterlimit:4;stroke-opacity:1;stroke-dasharray:none" d="m 206.51868,275.25488 c 0.81509,5.5607 2.09778,7.60935 3.57578,10.23695 1.47801,2.6276 3.30893,5.39171 3.56879,5.46398" id="path3189" sodipodi:nodetypes="czc"/>
    <path style="fill:none;stroke:#000000;stroke-width:3.99995995;stroke-linecap:round;stroke-linejoin:round;stroke-miterlimit:4;stroke-opacity:1;stroke-dasharray:none" d="m 213.94403,297.92412 c 0.16589,0.3548 0.86534,2.38717 0.79332,5.12554" id="path3191"/>
    <g id="g4966">
      <g id="g4962">
        <path sodipodi:nodetypes="ccccc" id="use4887" d="m 144.6917,226.69901 c -1.64949,3.02295 -2.06802,4.47523 -1.88267,8.75394 0.1559,1.89856 1.86138,1.91279 3.12741,0.33066 0.31159,-4.22228 0.37031,-4.18147 1.81826,-8.27065 -0.47204,-1.8668 -2.15346,-1.62857 -3.063,-0.81395 z" style="fill:#000001;fill-opacity:1;fill-rule:evenodd;stroke:#000000;stroke-width:4.20881128;stroke-linecap:butt;stroke-linejoin:round;stroke-miterlimit:4;stroke-opacity:1;stroke-dasharray:none"/>
        <path sodipodi:nodetypes="ccccc" id="use4889" d="m 144.6904,230.47585 c -0.31005,0.79632 -0.38871,1.17889 -0.35387,2.306 0.0293,0.50014 0.34986,0.50388 0.58783,0.0871 0.0586,-1.11225 0.0696,-1.1015 0.34176,-2.17869 -0.0887,-0.49177 -0.40476,-0.42901 -0.57572,-0.21442 z" style="fill:#d2d2d2;fill-opacity:1;fill-rule:evenodd;stroke:#ffffff;stroke-width:0.93653578;stroke-linecap:butt;stroke-linejoin:round;stroke-miterlimit:4;stroke-opacity:1;stroke-dasharray:none"/>
      </g>
      <g id="g4958">
        <use x="0" y="0" xlink:href="#use4887" id="use4891" transform="translate(15.628868,-0.02078307)" width="260" height="280"/>
        <use x="0" y="0" xlink:href="#use4889" id="use4893" transform="translate(15.732461,0.23981276)" width="260" height="280"/>
      </g>
    </g>
    <path style="stroke-width:1px" d="m 122.37582,92.89217 -10.73655,4.586487" id="path4909" transform="translate(15.039751,169.27877)"/>
    <g id="g4954" transform="translate(-1.23526,0)">
      <path sodipodi:nodetypes="ccccc" id="use4887-0" d="m 149.68531,247.75179 c -0.24276,0.68069 -0.30436,1.00771 -0.27708,1.97116 0.0229,0.42751 0.27394,0.43071 0.46027,0.0745 0.0459,-0.95075 0.0545,-0.94156 0.26759,-1.86234 -0.0695,-0.42035 -0.31693,-0.36671 -0.45078,-0.18328 z" style="fill:#000001;fill-opacity:1;fill-rule:evenodd;stroke:#000000;stroke-width:0.7661792;stroke-linecap:butt;stroke-linejoin:round;stroke-miterlimit:4;stroke-opacity:1;stroke-dasharray:none"/>
      <use height="280" width="260" transform="translate(3.7525804,-0.05211917)" id="use4952" inkscape:transform-center-y="-2.9576367" inkscape:transform-center-x="0.21411142" xlink:href="#use4887-0" y="0" x="0"/>
    </g>
  </g>
</svg>